^C:\USERS\ETHZRT\DOCUMENTS\MSC-GENERATOR\CAIRO_PROJECT\LIBPNG\PROJECTS\VSTUDIO\PNGVALID\RELEASE LIBRARY\PNGVALID.OBJ
C:\WINDOWS\GLOBALIZATION\SORTING\SORTDEFAULT.NLS
C:\USERS\ETHZRT\DOCUMENTS\MSC-GENERATOR\CAIRO_PROJECT\LIBPNG\PROJECTS\VSTUDIO\RELEASE LIBRARY\LIBPNG16.LIB
C:\USERS\ETHZRT\DOCUMENTS\MSC-GENERATOR\CAIRO_PROJECT\LIBPNG\PROJECTS\VSTUDIO\RELEASE LIBRARY\ZLIB.LIB
C:\USERS\ETHZRT\DOCUMENTS\MSC-GENERATOR\CAIRO_PROJECT\LIBPNG\PROJECTS\VSTUDIO\PNGVALID\RELEASE LIBRARY\PNGVALID.OBJ
C:\PROGRAM FILES (X86)\MICROSOFT VISUAL STUDIO\2017\PROFESSIONAL\VC\TOOLS\MSVC\14.12.25827\BIN\HOSTX86\X86\C2.DLL
C:\PROGRAM FILES (X86)\MICROSOFT VISUAL STUDIO\2017\PROFESSIONAL\VC\TOOLS\MSVC\14.12.25827\LIB\X86\LIBCMT.LIB
C:\PROGRAM FILES (X86)\MICROSOFT VISUAL STUDIO\2017\PROFESSIONAL\VC\TOOLS\MSVC\14.12.25827\LIB\X86\OLDNAMES.LIB
C:\PROGRAM FILES (X86)\WINDOWS KITS\8.1\LIB\WINV6.3\UM\X86\UUID.LIB
C:\PROGRAM FILES (X86)\WINDOWS KITS\8.1\LIB\WINV6.3\UM\X86\KERNEL32.LIB
C:\PROGRAM FILES (X86)\MICROSOFT VISUAL STUDIO\2017\PROFESSIONAL\VC\TOOLS\MSVC\14.12.25827\LIB\X86\LIBVCRUNTIME.LIB
C:\PROGRAM FILES (X86)\WINDOWS KITS\10\LIB\10.0.10240.0\UCRT\X86\LIBUCRT.LIB
C:\PROGRAM FILES (X86)\MICROSOFT VISUAL STUDIO\2017\PROFESSIONAL\VC\TOOLS\MSVC\14.12.25827\BIN\HOSTX86\X86\1033\LINKUI.DLL
C:\PROGRAM FILES (X86)\WINDOWS KITS\8.1\BIN\X86\RC.EXE
C:\PROGRAM FILES (X86)\MICROSOFT VISUAL STUDIO\2017\PROFESSIONAL\VC\TOOLS\MSVC\14.12.25827\BIN\HOSTX86\X86\CVTRES.EXE
C:\WINDOWS\SYSTEM32\TZRES.DLL
C:\WINDOWS\SYSTEM32\RSAENH.DLL
