ArrowLabels.block:4:1: error: This arrow label is not following an arrow to attach it to. Ignoring it.
ArrowLabels.block:3:1: (Here is the previous instruction, which is not an arrow.)
There were errors, but a chart has been produced.
