problematic5g.block:4:8: warning: The arrow A@e->C@s could not be laid out without overlapping something else.
problematic5g.block:4:8: (Consider adding more space, adding/removing ports to the arrow ends.)
problematic5g.block:4:8: warning: The arrow A@e->C could not be laid out without overlapping something else.
Success.
