defdesign kuku {
  defstyle aaa [style=bold]
  graph [bgcolor=red];
}

defproc probe($target, $label="yesyes") {
    if $label==yesyes then defstyle tmp [style=double]
    else defstyle tmp [style=bold];
    {$$+m,$$+n,$$+o,$$+p,$$+q}->$target;
    $$+m--$$+q [label=$label][tmp];
    if $target<=struct2 then $$+q..$$+p::\c(red)struct1 or struct2[]
    else $$+r>>$$+q;
    if $target>struct2 then $$+q..$$+p::\c(red)struct3 or xx;
};


