basic_error_proc.signalling:3:2: error: Cannot change the label of an entity after declaration. Keeping old label: 'd'.
basic_error_proc.signalling:2:1: (Entity 'd' was defined here.)
basic_error_proc.signalling:4:1: error: There are warnings or errors inside the procedure definition. Ignoring it.
basic_error_proc.signalling:7:12: error: Attribute  'fufu' cannot be applied here. Ignoring it.
basic_error_proc.signalling:11:8: error: Ill-formed procedure. Ignoring procedure call.
basic_error_proc.signalling:12:8: error: Ill-formed procedure. Ignoring procedure call.
basic_error_proc.signalling:13:7: error: Attribute  'f' cannot be applied here. Ignoring it.
There were errors, but a chart has been produced.
